…
First, we import the CSV files to individual data frames.

``` r
library(readr)
Pavement_Moratorium <- read_csv(
  "/home/Projects/postgis-geocoder-test/Data/Pavement Moratorium.csv",
  col_types = cols(
    `Moratorium End Date` = col_date(format = "%m/%d/%Y"),
    OBJECTID = col_character(), 
    `Treatment Date` = col_date(format = "%m/%d/%Y")))
print(Pavement_Moratorium)
```

    ## # A tibble: 109 × 7
    ##    OBJECTID `Project#`                       Street        `From Street`
    ##       <chr>      <chr>                        <chr>                <chr>
    ## 1      1166       <NA>      Se 29Th Ave-Base Repair              Clay St
    ## 2      1171       <NA> Sw Montgomery Dr-Base Repair           Clifton St
    ## 3      1175       <NA>                  Ne 52Nd Ave         Clackamas St
    ## 4      1187       <NA>  W Burnside St Base - Repair 325' E Of Maywood Dr
    ## 5      1188       <NA>  W Burnside St Base - Repair         Macleay Blvd
    ## 6      1190       <NA>    Ne 15Th Ave Base - Repair           Hancock St
    ## 7      1191       <NA>     Ne 9Th Ave Base - Repair            Halsey St
    ## 8      1198       <NA>   Nw Glisan St - Base Repair             13Th Ave
    ## 9      1206       <NA>                Nw Thurman St            Gordon St
    ## 10     1207       <NA>                  Nw 16Th Ave              Lovejoy
    ## # ... with 99 more rows, and 3 more variables: `To Street` <chr>,
    ## #   `Treatment Date` <date>, `Moratorium End Date` <date>

``` r
Planned_Fog_Seal <- read_csv(
  "/home/Projects/postgis-geocoder-test/Data/Planned Fog Seal.csv",
  col_types = cols(
    OBJECTID = col_character()))
print(Planned_Fog_Seal)
```

    ## # A tibble: 67 × 7
    ##    OBJECTID            Street `From Street` `To Street` `Project Type`
    ##       <chr>             <chr>         <chr>       <chr>          <chr>
    ## 1      2632        Se Main St      30Th Ave    32Nd Ave       Fog Seal
    ## 2      3321      NW  24TH AVE     GLISAN ST   VAUGHN ST       Fog Seal
    ## 3      3322     NW  SAVIER ST      28TH AVE    23RD AVE       Fog Seal
    ## 4      3324     NW  QUIMBY ST      25TH AVE    23RD AVE       Fog Seal
    ## 5      3325 NW  PETTYGROVE ST      26TH AVE    23RD AVE       Fog Seal
    ## 6      3326    NW  OVERTON ST      21ST AVE    19TH AVE       Fog Seal
    ## 7      3327      NW  20TH AVE    LOVEJOY SY  RALEIGH ST       Fog Seal
    ## 8      3328      NW  17TH AVE   MARSHALL ST NORTHRUP ST       Fog Seal
    ## 9      3329    NW  JOHNSON ST      25TH AVE    23RD AVE       Fog Seal
    ## 10     3330    NW  JOHNSON ST      15TH AVE    14TH AVE       Fog Seal
    ## # ... with 57 more rows, and 2 more variables: `Proposed FY` <chr>,
    ## #   `Project#` <chr>

``` r
Planned_Paving <- read_csv(
  "/home/Projects/postgis-geocoder-test/Data/Planned Paving.csv",
  col_types = cols(OBJECTID = col_character()))

tabula_G_P_Schedule_as_of_1_5_2017 <- read_csv(
  "/home/Projects/postgis-geocoder-test/Data/tabula-G_P Schedule as of 1-5-2017.csv",
  col_types = cols(Start = col_character()))
print(tabula_G_P_Schedule_as_of_1_5_2017)
```

    ## # A tibble: 34 × 4
    ##                                                         `Task Name`
    ##                                                               <chr>
    ## 1                                   NE 122nd Ave: Stanton to Halsey
    ## 2                           NE 102nd Ave: Burnside St to Weidler St
    ## 3                             SE 17th Ave: Andover Pl to Clatsop St
    ## 4                               SE Clinton St: 21st Ave to 26th Ave
    ## 5  SW Jefferson St: 841'W of 20th Ave (N side) to\rPark Ave (W leg)
    ## 6                              SW Morrison St: 18th Ave to 11th Ave
    ## 7                         SW Arthur St: 3rd Ave to 241'E of 1st Ave
    ## 8                               SW Caruthers St: 6th Ave to 3rd Ave
    ## 9                        SE 46th Ave: Glenwood St to Woodstock Blvd
    ## 10                           SE Sandy Blvd: Stark St to Burnside St
    ## # ... with 24 more rows, and 3 more variables: Duration <chr>,
    ## #   Start <chr>, Finish <chr>
…
